﻿Log file open, 06/06/17 12:31:38
LogInit:Display: Running engine for game: TEST
LogPlatformFile: Not using cached read wrapper
LogInit:Display: RandInit(-2024724736) SRandInit(-2024724735).
LogTaskGraph: Started task graph with 5 named threads and 8 total threads with 1 sets of task threads.
LogStats: Stats thread started at 0.086517
LogInit: Using libcurl 7.47.1
LogInit:  - built for x86_64-pc-win32
LogInit:  - supports SSL with OpenSSL/1.0.2g
LogInit:  - supports HTTP deflate (compression) using libz 1.2.8
LogInit:  - other features:
LogInit:      CURL_VERSION_SSL
LogInit:      CURL_VERSION_LIBZ
LogInit:      CURL_VERSION_IPV6
LogInit:      CURL_VERSION_ASYNCHDNS
LogInit:      CURL_VERSION_LARGEFILE
LogInit:      CURL_VERSION_IDN
LogInit:  CurlRequestOptions (configurable via config and command line):
LogInit:  - bVerifyPeer = false  - Libcurl will NOT verify peer certificate
LogInit:  - bUseHttpProxy = false  - Libcurl will NOT use HTTP proxy
LogInit:  - bDontReuseConnections = false  - Libcurl will reuse connections
LogInit:  - CertBundlePath = nullptr  - Libcurl will use whatever was configured at build time.
LogInit: Build: ++UE4+Release-4.15-CL-3450819
LogInit: Engine Version: 4.15.3-3450819+++UE4+Release-4.15
LogInit: Compatible Engine Version: 4.15.0-3299760+++UE4+Release-4.15
LogInit: Net CL: 3299760
LogDevObjectVersion: Number of dev versions registered: 14
LogDevObjectVersion:   Dev-Blueprints (B0D832E4-1F89-4F0D-ACCF-7EB736FD4AA2): 8
LogDevObjectVersion:   Dev-Build (E1C64328-A22C-4D53-A36C-8E866417BD8C): 0
LogDevObjectVersion:   Dev-Core (375EC13C-06E4-48FB-B500-84F0262A717E): 2
LogDevObjectVersion:   Dev-Editor (E4B068ED-F494-42E9-A231-DA0B2E46BB41): 14
LogDevObjectVersion:   Dev-Framework (CFFC743F-43B0-4480-9391-14DF171D2073): 22
LogDevObjectVersion:   Dev-Mobile (B02B49B5-BB20-44E9-A304-32B752E40360): 0
LogDevObjectVersion:   Dev-Networking (A4E4105C-59A1-49B5-A7C5-40C4547EDFEE): 0
LogDevObjectVersion:   Dev-Online (39C831C9-5AE6-47DC-9A44-9C173E1C8E7C): 0
LogDevObjectVersion:   Dev-Physics (78F01B33-EBEA-4F98-B9B4-84EACCB95AA2): 0
LogDevObjectVersion:   Dev-Platform (6631380F-2D4D-43E0-8009-CF276956A95A): 0
LogDevObjectVersion:   Dev-Rendering (12F88B9F-8875-4AFC-A67C-D90C383ABD29): 12
LogDevObjectVersion:   Dev-Sequencer (7B5AE74C-D270-4C10-A958-57980B212A5A): 3
LogDevObjectVersion:   Dev-VR (D7296918-1DD6-4BDD-9DE2-64A83CC13884): 0
LogDevObjectVersion:   Dev-LoadTimes (C2A15278-BFE7-4AFE-6C17-90FF531DF755): 1
LogInit: Compiled (64-bit): May 21 2017 11:02:34
LogInit: Compiled with Visual C++: 19.00.23026.00
LogInit: Build Configuration: Development
LogInit: Branch Name: ++UE4+Release-4.15
LogInit: Command line: -EpicPortal 
LogInit: Base directory: C:/Program Files/Epic Games/UE_4.15/Engine/Binaries/Win64/
LogInit: Installed Engine Build: 1
LogInit: Presizing for max 8388607 objects, including 0 objects not considered by GC, pre-allocating 0 bytes for permanent pool.
LogInit: Object subsystem initialized
[2017.06.06-10.31.39:760][  0]LogConsoleManager:Display: Setting the console variable 'r.RHICmdBypass' with 'SetByProjectSetting' was ignored as it is lower priority than the previous 'SetBySystemSettingsIni'. Value remains '1'
[2017.06.06-10.31.39:766][  0]LogInit: Selected Device Profile: [Windows]
[2017.06.06-10.31.39:766][  0]LogInit: Applying CVar settings loaded from the selected device profile: [Windows]
[2017.06.06-10.31.39:786][  0]LogInit: Computer: LIFE01
[2017.06.06-10.31.39:786][  0]LogInit: User: Life01
[2017.06.06-10.31.39:786][  0]LogInit: CPU Page size=65536, Cores=4
[2017.06.06-10.31.39:786][  0]LogInit: High frequency timer resolution =3.312794 MHz
[2017.06.06-10.31.39:787][  0]LogMemory: Memory total: Physical=18.0GB (18GB approx)
[2017.06.06-10.31.39:787][  0]LogMemory: Platform Memory Stats for Windows
[2017.06.06-10.31.39:787][  0]LogMemory: Process Physical Memory: 263.71 MB used, 263.71 MB peak
[2017.06.06-10.31.39:787][  0]LogMemory: Process Virtual Memory: 262.50 MB used, 262.50 MB peak
[2017.06.06-10.31.39:787][  0]LogMemory: Physical Memory: 7542.30 MB used,  10872.81 MB free, 18415.11 MB total
[2017.06.06-10.31.39:787][  0]LogMemory: Virtual Memory: 644.94 MB used,  10872.81 MB free, 134217728.00 MB total
[2017.06.06-10.31.39:894][  0]LogInit: Overriding culture en with editor configuration.
[2017.06.06-10.31.40:634][  0]LogD3D11RHI: D3D11 adapters:
[2017.06.06-10.31.41:155][  0]LogD3D11RHI:    0. 'NVIDIA GeForce GTX 960' (Feature Level 11_0)
[2017.06.06-10.31.41:155][  0]LogD3D11RHI:       2016/0/9207 MB DedicatedVideo/DedicatedSystem/SharedSystem, Outputs:2, VendorId:0x10de
[2017.06.06-10.31.41:157][  0]LogD3D11RHI:    1. 'Microsoft Basic Render Driver' (Feature Level 11_0)
[2017.06.06-10.31.41:157][  0]LogD3D11RHI:       0/0/9207 MB DedicatedVideo/DedicatedSystem/SharedSystem, Outputs:0, VendorId:0x1414
[2017.06.06-10.31.41:157][  0]LogD3D11RHI: Chosen D3D11 Adapter: 0
[2017.06.06-10.31.41:165][  0]LogD3D11RHI: Creating new Direct3DDevice
[2017.06.06-10.31.41:165][  0]LogD3D11RHI:     GPU DeviceId: 0x1401 (for the marketing name, search the web for "GPU Device Id")
[2017.06.06-10.31.41:165][  0]LogWindows: EnumDisplayDevices:
[2017.06.06-10.31.41:165][  0]LogWindows:    0. 'NVIDIA GeForce GTX 960' (P:0 D:1)
[2017.06.06-10.31.41:166][  0]LogWindows:    1. 'NVIDIA GeForce GTX 960' (P:1 D:1)
[2017.06.06-10.31.41:166][  0]LogWindows:    2. 'NVIDIA GeForce GTX 960' (P:0 D:0)
[2017.06.06-10.31.41:166][  0]LogWindows:    3. 'NVIDIA GeForce GTX 960' (P:0 D:0)
[2017.06.06-10.31.41:166][  0]LogWindows: DebugString: FoundDriverCount:4 
[2017.06.06-10.31.41:166][  0]LogD3D11RHI:     Adapter Name: NVIDIA GeForce GTX 960
[2017.06.06-10.31.41:166][  0]LogD3D11RHI:   Driver Version: 382.33 (internal:22.21.13.8233, unified:382.33)
[2017.06.06-10.31.41:166][  0]LogD3D11RHI:      Driver Date: 5-17-2017
[2017.06.06-10.31.41:166][  0]LogRHI: Texture pool is 1361 MB (70% of 1945 MB)
[2017.06.06-10.31.41:649][  0]LogD3D11RHI: Async texture creation enabled
[2017.06.06-10.31.41:680][  0]LogD3D11RHI: GPU Timing Frequency: 1000.000000 (Debug: 2 1)
[2017.06.06-10.31.41:777][  0]LogShaderCompilers: Guid format shader working directory is 25 characters bigger than the processId version (J:/00_TEST/10_UE/TEST/Intermediate/Shaders/WorkingDirectory/23504/).
[2017.06.06-10.31.41:777][  0]LogShaderCompilers: Cleaned the shader compiler working directory 'C:/Users/Life01/AppData/Local/Temp/UnrealShaderWorkingDir/4875673D47B6EAAA7467349E8CD3C032/'.
[2017.06.06-10.31.41:777][  0]LogShaderCompilers:Display: Using Local Shader Compiler.
[2017.06.06-10.31.42:959][  0]LogTemp:Display: Loaded TP AllDesktopTargetPlatform
[2017.06.06-10.31.43:038][  0]LogTemp:Display: Loaded TP MacClientTargetPlatform
[2017.06.06-10.31.43:117][  0]LogTemp:Display: Loaded TP MacNoEditorTargetPlatform
[2017.06.06-10.31.43:196][  0]LogTemp:Display: Loaded TP MacServerTargetPlatform
[2017.06.06-10.31.43:276][  0]LogTemp:Display: Loaded TP MacTargetPlatform
[2017.06.06-10.31.43:355][  0]LogTemp:Display: Loaded TP WindowsClientTargetPlatform
[2017.06.06-10.31.43:436][  0]LogTemp:Display: Loaded TP WindowsNoEditorTargetPlatform
[2017.06.06-10.31.43:514][  0]LogTemp:Display: Loaded TP WindowsServerTargetPlatform
[2017.06.06-10.31.43:578][  0]LogTemp:Display: Loaded TP WindowsTargetPlatform
[2017.06.06-10.31.43:655][  0]LogTemp:Display: Loaded TP AndroidTargetPlatform
[2017.06.06-10.31.43:732][  0]LogTemp:Display: Loaded TP Android_ASTCTargetPlatform
[2017.06.06-10.31.43:808][  0]LogTemp:Display: Loaded TP Android_ATCTargetPlatform
[2017.06.06-10.31.43:886][  0]LogTemp:Display: Loaded TP Android_DXTTargetPlatform
[2017.06.06-10.31.43:963][  0]LogTemp:Display: Loaded TP Android_ETC1TargetPlatform
[2017.06.06-10.31.44:039][  0]LogTemp:Display: Loaded TP Android_ETC2TargetPlatform
[2017.06.06-10.31.44:195][  0]LogTemp:Display: Loaded TP Android_MultiTargetPlatform
[2017.06.06-10.31.44:195][  0]LogTemp:Display: Loaded TP Android_PVRTCTargetPlatform
[2017.06.06-10.31.44:250][  0]LogTemp:Display: Loaded TP HTML5TargetPlatform
[2017.06.06-10.31.44:381][  0]LogTemp:Display: Loaded TP IOSTargetPlatform
[2017.06.06-10.31.44:433][  0]LogTemp:Display: Loaded TP TVOSTargetPlatform
[2017.06.06-10.31.44:510][  0]LogTemp:Display: Loaded TP LinuxClientTargetPlatform
[2017.06.06-10.31.44:586][  0]LogTemp:Display: Loaded TP LinuxNoEditorTargetPlatform
[2017.06.06-10.31.44:663][  0]LogTemp:Display: Loaded TP LinuxServerTargetPlatform
[2017.06.06-10.31.44:740][  0]LogTemp:Display: Loaded TP LinuxTargetPlatform
[2017.06.06-10.31.44:740][  0]LogTargetPlatformManager:Display: Building Assets For Windows
[2017.06.06-10.31.45:412][  0]LogDerivedDataCache:Display: Max Cache Size: 512 MB
[2017.06.06-10.31.45:481][  0]LogDerivedDataCache: Loaded boot cache 0.07s 61MB C:/Users/Life01/AppData/Local/UnrealEngine/4.15/DerivedDataCache/Boot.ddc.
[2017.06.06-10.31.45:481][  0]LogDerivedDataCache:Display: Loaded Boot cache: C:/Users/Life01/AppData/Local/UnrealEngine/4.15/DerivedDataCache/Boot.ddc
[2017.06.06-10.31.45:482][  0]LogDerivedDataCache: FDerivedDataBackendGraph:  Pak pak cache file J:/00_TEST/10_UE/TEST/DerivedDataCache/DDC.ddp not found, will not use a pak cache.
[2017.06.06-10.31.45:482][  0]LogDerivedDataCache: Unable to find inner node Pak for hierarchical cache Hierarchy.
[2017.06.06-10.31.45:482][  0]LogDerivedDataCache: FDerivedDataBackendGraph:  CompressedPak pak cache file J:/00_TEST/10_UE/TEST/DerivedDataCache/Compressed.ddp not found, will not use a pak cache.
[2017.06.06-10.31.45:482][  0]LogDerivedDataCache: Unable to find inner node CompressedPak for hierarchical cache Hierarchy.
[2017.06.06-10.31.45:501][  0]LogDerivedDataCache:Display: Pak cache opened for reading ../../../Engine/DerivedDataCache/Compressed.ddp.
[2017.06.06-10.31.45:512][  0]LogDerivedDataCache: Using Local data cache path C:/Users/Life01/AppData/Local/UnrealEngine/Common/DerivedDataCache: Writable
[2017.06.06-10.31.45:523][  0]LogSlate: Using Freetype 2.6.0
[2017.06.06-10.31.45:523][  0]LogSlate: SlateFontCache - WITH_FREETYPE: 1, WITH_HARFBUZZ: 1
[2017.06.06-10.31.45:523][  0]LogSlate: SlateFontCache - WITH_FREETYPE: 1, WITH_HARFBUZZ: 1
[2017.06.06-10.31.45:833][  0]LogInit: Selected Device Profile: [Windows]
[2017.06.06-10.31.45:836][  0]LogContentStreaming: Texture pool size is 0.00 MB
[2017.06.06-10.31.46:102][  0]LogMeshUtilities: Using QuadricMeshReduction for automatic static mesh reduction
[2017.06.06-10.31.46:167][  0]LogSimplygon: Simplygon DLL not present - disabling.
[2017.06.06-10.31.46:235][  0]LogMeshUtilities: Using SimplygonSwarm for distributed automatic mesh merging
[2017.06.06-10.31.46:235][  0]LogMeshUtilities: No automatic skeletal mesh reduction module available
[2017.06.06-10.31.46:235][  0]LogMeshUtilities: No automatic mesh merging module available
[2017.06.06-10.31.46:897][  0]LogNetVersion: GetLocalNetworkVersion: CL: 3299760, ProjectName: test, ProjectVersion: , EngineNetworkVersion: 2, GameNetworkVersion: 0, NetworkChecksum: 2795628083
[2017.06.06-10.31.46:954][  0]LogAssetRegistry: FAssetRegistry took 0.0214 seconds to start up
[2017.06.06-10.31.47:048][  0]LogPackageLocalizationCache: Processed 3 localized package path(s) for 1 prioritized culture(s) in 0.051856 seconds
[2017.06.06-10.31.47:053][  0]LogUObjectArray: 32493 objects as part of root set at end of initial load.
[2017.06.06-10.31.47:053][  0]LogUObjectAllocator: 7077032 out of 0 bytes used by permanent object pool.
[2017.06.06-10.31.47:053][  0]LogUObjectArray: CloseDisregardForGC: 0/0 objects in disregard for GC pool
[2017.06.06-10.31.47:153][  0]LogInit: WinSock: version 1.1 (2.2), MaxSocks=32767, MaxUdp=65467
[2017.06.06-10.31.49:368][  0]LogTcpMessaging: Initializing TcpMessaging bridge
[2017.06.06-10.31.49:447][  0]LogUdpMessaging: Initializing bridge on interface 0.0.0.0:0 to multicast group 230.0.0.1:6666.
[2017.06.06-10.31.49:447][  0]LogDirectoryWatcher: A directory notification failed for 'J:/00_TEST/10_UE/TEST/Content/' because it was empty or there was a buffer overflow. Attemping another request...
[2017.06.06-10.31.50:077][  0]LogMaterial: Uniform references updated for custom material expression Custom.
[2017.06.06-10.31.50:614][  0]SourceControl: Info Source control is disabled
[2017.06.06-10.31.50:615][  0]SourceControl: Info Source control is disabled
[2017.06.06-10.31.50:682][  0]SourceControl: Info Source control is disabled
[2017.06.06-10.31.50:748][  0]SourceControl: Info Source control is disabled
[2017.06.06-10.31.52:512][  0]LogEngine: Initializing Engine...
[2017.06.06-10.31.52:542][  0]LogHMD: Failed to initialize OpenVR with code 108
[2017.06.06-10.31.52:660][  0]LogStats: UGameplayTagsManager::ConstructGameplayTagTree: Construct from data asset -  0.000 s
[2017.06.06-10.31.52:660][  0]LogStats: UGameplayTagsManager::ConstructGameplayTagTree: GameplayTagTreeChangedEvent.Broadcast -  0.000 s
[2017.06.06-10.31.52:834][  0]LogAIModule: Creating AISystem for world Untitled
[2017.06.06-10.31.52:845][  0]LogInit: XAudio2 using 'Altavoces (Dispositivo de High Definition Audio)' : 2 channels at 44.1 kHz using 16 bits per sample (channel mask 0x3)
[2017.06.06-10.31.52:858][  0]LogInit: FAudioDevice initialized.
[2017.06.06-10.31.52:892][  0]LogDerivedDataCache: Saved boot cache 0.03s 61MB C:/Users/Life01/AppData/Local/UnrealEngine/4.15/DerivedDataCache/Boot.ddc.
[2017.06.06-10.31.52:909][  0]LogInit: Texture streaming: Enabled
[2017.06.06-10.31.53:062][  0]LogEngineSessionManager: EngineSessionManager initialized
[2017.06.06-10.31.53:191][  0]LogInit: Transaction tracking system initialized
[2017.06.06-10.31.53:690][  0]BlueprintLog: New page: Editor Load
[2017.06.06-10.31.54:976][  0]LocalizationService: Info Localization service is disabled
[2017.06.06-10.31.55:990][  0]LogConsoleResponse:Display: 
[2017.06.06-10.31.56:129][  0]LogCook:Display: Max memory allowance for cook 16384mb min free memory 0mb
[2017.06.06-10.31.56:129][  0]LogCook:Display: Mobile HDR setting 1
[2017.06.06-10.31.57:034][  0]LogFileCache: Scanning file cache for directory 'J:/00_TEST/10_UE/TEST/Content/' took 0.04s
[2017.06.06-10.31.57:603][  0]SourceControl: Info Source control is disabled
[2017.06.06-10.31.57:603][  0]Cmd: MAP LOAD FILE="J:/00_TEST/10_UE/TEST/Content/VirtualRealityBP/Maps/StartupMap.umap" TEMPLATE=0 SHOWPROGRESS=1 FEATURELEVEL=3
[2017.06.06-10.31.57:604][  0]LightingResults: New page: Lighting Build
[2017.06.06-10.31.57:662][  0]MapCheck: New page: Map Check
[2017.06.06-10.31.57:662][  0]LightingResults: New page: Lighting Build
[2017.06.06-10.31.57:762][  0]LogAIModule: Creating AISystem for world StartupMap
[2017.06.06-10.31.57:787][  0]LogEditorServer: Finished looking for orphan Actors (0.000 secs)
[2017.06.06-10.31.57:787][  0]Cmd: MAP CHECKDEP NOCLEARLOG
[2017.06.06-10.31.57:842][  0]MapCheck: Info Map check complete: 0 Error(s), 0 Warning(s), took 55.064ms to complete.
[2017.06.06-10.31.57:842][  0]LogFileHelpers: Loading map 'StartupMap' took 0.240
[2017.06.06-10.31.58:043][  0]LogCollectionManager: Loaded 0 collections in 0.003103 seconds
[2017.06.06-10.31.58:160][  0]LogFileCache: Scanning file cache for directory 'J:/00_TEST/10_UE/TEST/Saved/Collections/' took 0.01s
[2017.06.06-10.31.58:160][  0]LogFileCache: Scanning file cache for directory 'J:/00_TEST/10_UE/TEST/Content/Developers/Life01/Collections/' took 0.01s
[2017.06.06-10.31.58:160][  0]LogFileCache: Scanning file cache for directory 'J:/00_TEST/10_UE/TEST/Content/Collections/' took 0.01s
[2017.06.06-10.31.58:160][  0]LogCollectionManager: Rebuilt the GUID cache for 0 collections in 0.000002 seconds
[2017.06.06-10.31.58:171][  0]LogContentBrowser: Native class hierarchy populated in 0.0107 seconds. Added 2245 classes and 453 folders.
[2017.06.06-10.31.58:266][  0]LogContentBrowser: Native class hierarchy updated for 'WidgetCarousel' in 0.0013 seconds. Added 0 classes and 0 folders.
[2017.06.06-10.31.58:316][  0]LogContentBrowser: Native class hierarchy updated for 'AddContentDialog' in 0.0013 seconds. Added 0 classes and 0 folders.
[2017.06.06-10.31.58:376][  0]LogContentBrowser: Native class hierarchy updated for 'SceneOutliner' in 0.0013 seconds. Added 1 classes and 2 folders.
[2017.06.06-10.31.58:491][  0]LogCrashTracker: Crashtracker disabled due to settings.
[2017.06.06-10.31.58:498][  0]LogUObjectGlobals:Warning: Failed to find object 'Class None.'
[2017.06.06-10.31.58:591][  0]LogContentBrowser: Native class hierarchy updated for 'HierarchicalLODOutliner' in 0.0014 seconds. Added 1 classes and 2 folders.
[2017.06.06-10.31.58:591][  0]LogLoad: (Engine Initialization) Total time: 21.47 seconds
[2017.06.06-10.31.58:591][  0]LogLoad: (Engine Initialization) Total Blueprint compile time: 0.06 seconds
[2017.06.06-10.31.58:591][  0]LogExternalProfiler: No external profilers were discovered.  External profiling features will not be available.
[2017.06.06-10.31.58:601][  0]LogWindowsTextInputMethodSystem:Display: IME system now deactivated.
[2017.06.06-10.31.58:601][  0]LogOcInput: OculusInput pre-init called
[2017.06.06-10.31.58:637][  0]LogDirectoryWatcher: A directory notification failed for 'J:/00_TEST/10_UE/TEST/Content/' because it was empty or there was a buffer overflow. Attemping another request...
[2017.06.06-10.31.58:638][  0]LogDirectoryWatcher: A directory notification failed for 'J:/00_TEST/10_UE/TEST/Content/', and we were unable to create a new request.
[2017.06.06-10.31.58:638][  0]LogDirectoryWatcher: A directory notification failed for 'J:/00_TEST/10_UE/TEST/Saved/Collections/' because it was empty or there was a buffer overflow. Attemping another request...
[2017.06.06-10.31.58:638][  0]LogDirectoryWatcher: A directory notification failed for 'J:/00_TEST/10_UE/TEST/Content/Developers/Life01/Collections/' because it was empty or there was a buffer overflow. Attemping another request...
[2017.06.06-10.31.58:638][  0]LogDirectoryWatcher: A directory notification failed for 'J:/00_TEST/10_UE/TEST/Content/Collections/' because it was empty or there was a buffer overflow. Attemping another request...
[2017.06.06-10.31.58:640][  0]LogContentStreaming: Texture pool size now 3000 MB
[2017.06.06-10.31.58:641][  0]LogSlate: Took 0.000248 seconds to synchronously load lazily loaded font '../../../Engine/Content/Slate/Fonts/Roboto-Regular.ttf' (155K)
[2017.06.06-10.31.58:645][  0]LogSlate: Took 0.000305 seconds to synchronously load lazily loaded font '../../../Engine/Content/Slate/Fonts/Roboto-Bold.ttf' (160K)
[2017.06.06-10.31.58:651][  0]LogSlate: Took 0.000215 seconds to synchronously load lazily loaded font '../../../Engine/Content/Editor/Slate/Fonts/FontAwesome.ttf' (139K)
[2017.06.06-10.31.58:731][  0]LogSlate: Took 0.000241 seconds to synchronously load lazily loaded font '../../../Engine/Content/Slate/Fonts/Roboto-Light.ttf' (159K)
[2017.06.06-10.31.58:796][  0]LogRenderer: Reallocating scene render targets to support 1208x584 NumSamples 1 (Frame:2).
[2017.06.06-10.31.58:871][  1]LogAssetRegistry: Asset discovery search completed in 11.9385 seconds
[2017.06.06-10.31.58:871][  1]LogCollectionManager: Rebuilt the object cache for 0 collections in 0.000005 seconds (found 0 objects)
[2017.06.06-10.31.58:871][  1]LogCollectionManager: Fixed up redirectors for 0 collections in 0.000019 seconds (updated 0 objects)
[2017.06.06-10.31.58:871][  1]LogDirectoryWatcher: A directory notification failed for 'J:/00_TEST/10_UE/TEST/Saved/Collections/' because it was empty or there was a buffer overflow. Attemping another request...
[2017.06.06-10.31.58:872][  1]LogDirectoryWatcher: A directory notification failed for 'J:/00_TEST/10_UE/TEST/Saved/Collections/', and we were unable to create a new request.
[2017.06.06-10.31.58:872][  1]LogDirectoryWatcher: A directory notification failed for 'J:/00_TEST/10_UE/TEST/Content/Developers/Life01/Collections/' because it was empty or there was a buffer overflow. Attemping another request...
[2017.06.06-10.31.58:872][  1]LogDirectoryWatcher: A directory notification failed for 'J:/00_TEST/10_UE/TEST/Content/Developers/Life01/Collections/', and we were unable to create a new request.
[2017.06.06-10.31.58:872][  1]LogDirectoryWatcher: A directory notification failed for 'J:/00_TEST/10_UE/TEST/Content/Collections/' because it was empty or there was a buffer overflow. Attemping another request...
[2017.06.06-10.31.58:873][  1]LogDirectoryWatcher: A directory notification failed for 'J:/00_TEST/10_UE/TEST/Content/Collections/', and we were unable to create a new request.
